-0.547
-0.563
-0.532
-0.521
-0.514
-0.547
-0.578
-0.532
-0.552
-0.526
-0.534
-0.560
-0.502
-0.503
-0.516
-0.565
-0.532
-0.574
-0.521
-0.523
-0.542
-0.539
-0.543
-0.548
-0.565
-0.569
-0.574
-0.596
-0.547
-0.578
-0.532
-0.552
-0.554
-0.596
-0.529
-0.555
-0.559
-0.503
-0.499
-0.526
-0.551
-0.589
-0.588
-0.568
-0.564
-0.568
-0.556
-0.523
-0.526
-0.579
-0.551
-0.584
-0.551
-0.512
-0.536
-0.567
-0.512
-0.553
-0.534
-0.559
-0.498
-0.567
-0.589
-0.579